…
``` r
my_query <- queryRule(
  field = "am",
  operator = "equal",
  value = 1
)
queryToExpr(my_query)
#> am == 1
```

Such expression can be then used by `dplyr::filter`:

``` r
mtcars %>% dplyr::filter(!!queryToExpr(my_query))
#> # A tibble: 13 × 11
#>     mpg   cyl  disp    hp  drat    wt  qsec    vs    am  gear  carb
#>   <dbl> <dbl> <dbl> <dbl> <dbl> <dbl> <dbl> <dbl> <dbl> <dbl> <dbl>
#> 1  21       6 160     110  3.9   2.62  16.5     0     1     4     4
#> 2  21       6 160     110  3.9   2.88  17.0     0     1     4     4
#> 3  22.8     4 108      93  3.85  2.32  18.6     1     1     4     1
#> 4  32.4     4  78.7    66  4.08  2.2   19.5     1     1     4     1
#> 5  30.4     4  75.7    52  4.93  1.62  18.5     1     1     4     2
#> # ℹ 8 more rows
```
…
